TP2/sym/tb_fp_sig.vcd
$date
  Wed Oct 18 19:56:07 2023
$end
$version
  GHDL v0
$end
$timescale
  1 fs
$end
$scope module standard $end
$upscope $end
$scope module std_logic_1164 $end
$upscope $end
$scope module numeric_std $end
$upscope $end
$scope module tb_fp_sig $end
$var reg 23 ! fx[22:0] $end
$var reg 23 " fy[22:0] $end
$var reg 1 # is_0 $end
$var reg 1 $ saturation $end
$var reg 23 % fz[22:0] $end
$var reg 1 & add1 $end
$scope module exp_inst $end
$var reg 23 ' fx[22:0] $end
$var reg 23 ( fy[22:0] $end
$var reg 1 ) is_0 $end
$var reg 1 * saturation $end
$var reg 23 + fz[22:0] $end
$var reg 1 , add1 $end
$var reg 24 - fx_ext[23:0] $end
$var reg 24 . fy_ext[23:0] $end
$var reg 48 / fz_ext[47:0] $end
$var reg 23 0 fz_aux[22:0] $end
$var reg 1 1 fz_msb $end
$var reg 1 2 aux_sat $end
$upscope $end
$upscope $end
$enddefinitions $end
#0
b00000000000000000000010 !
b00000000000000000000010 "
0#
0$
b00000000000000000000100 %
0&
b00000000000000000000010 '
b00000000000000000000010 (
0)
0*
b00000000000000000000100 +
0,
b100000000000000000000010 -
b100000000000000000000010 .
b010000000000000000000010000000000000000000000100 /
b00000000000000000000100 0
01
02
#15000000
1$
b00000000000000000000000 %
1*
b00000000000000000000000 +
12
#20000000
b11111111111111111111111 !
b00000000000000000001010 "
1&
b11111111111111111111111 '
b00000000000000000001010 (
1,
b111111111111111111111111 -
b100000000000000000001010 .
b100000000000000000001001011111111111111111110110 /
b00000000000000000001001 0
11
#40000000
0$
b00000000000000000001001 %
0*
b00000000000000000001001 +
02
#60000000
b00000000000000000000000 "
1#
b00000000000000000000000 %
0&
b00000000000000000000000 (
1)
b00000000000000000000000 +
0,
b100000000000000000000000 .
b011111111111111111111111100000000000000000000000 /
b11111111111111111111111 0
01
12
#80000000
b00000000000000000000000 !
b11111111111111111111111 "
b00000000000000000000000 '
b11111111111111111111111 (
b100000000000000000000000 -
b111111111111111111111111 .
#100000000
b11111111111111111111111 !
0#
b11111111111111111111110 %
1&
b11111111111111111111111 '
0)
b11111111111111111111110 +
1,
b111111111111111111111111 -
b111111111111111111111110000000000000000000000001 /
b11111111111111111111110 0
11
02
#140000000
b00000000000000000000001 !
b00000000000000000000000 %
b00000000000000000000001 '
b00000000000000000000000 +
b100000000000000000000001 -
b100000000000000000000000011111111111111111111111 /
b00000000000000000000000 0
#160000000
1$
1*
12
