TP2/sym/tb_fp_exp.vcd
$date
  Wed Oct 18 18:39:24 2023
$end
$version
  GHDL v0
$end
$timescale
  1 fs
$end
$scope module standard $end
$upscope $end
$scope module std_logic_1164 $end
$upscope $end
$scope module numeric_std $end
$upscope $end
$scope module tb_fp_exp $end
$var reg 8 ! ex[7:0] $end
$var reg 8 " ey[7:0] $end
$var reg 1 # is_0 $end
$var reg 1 $ add1 $end
$var reg 8 % ez[7:0] $end
$var reg 1 & saturation $end
$scope module exp_inst $end
$var reg 8 ' ex[7:0] $end
$var reg 8 ( ey[7:0] $end
$var reg 1 ) is_0 $end
$var reg 1 * add1 $end
$var reg 8 + ez[7:0] $end
$var reg 1 , saturation $end
$var reg 9 - ex_ext[8:0] $end
$var reg 9 . ey_ext[8:0] $end
$var reg 9 / ez_pre[8:0] $end
$var reg 9 0 aux_add1[8:0] $end
$var reg 8 1 aux_ez[7:0] $end
$var reg 9 2 exc_2c[8:0] $end
$var reg 8 3 sat_value[7:0] $end
$var reg 8 4 zero_value[7:0] $end
$upscope $end
$upscope $end
$enddefinitions $end
#0
b10000010 !
b00010100 "
0#
1$
b00011000 %
0&
b10000010 '
b00010100 (
0)
1*
b00011000 +
0,
b010000010 -
b000010100 .
b000011000 /
b000000001 0
b00011000 1
b110000001 2
b11111111 3
b00000000 4
#10000000
0$
b00010111 %
0*
b00010111 +
b000010111 /
b000000000 0
b00010111 1
#20000000
b00011110 !
b01100100 "
b00000011 %
b00011110 '
b01100100 (
b00000011 +
b000011110 -
b001100100 .
b000000011 /
b00000011 1
#40000000
b01100100 !
b00000101 "
b11111111 %
1&
b01100100 '
b00000101 (
b11111111 +
1,
b001100100 -
b000000101 .
b111101010 /
b11111111 1
#60000000
b00000000 "
1#
b00000000 %
b00000000 (
1)
b00000000 +
b000000000 .
b111100101 /
#80000000
b00000000 !
b10010110 "
0&
b00000000 '
b10010110 (
0,
b000000000 -
b010010110 .
b000010111 /
b00010111 1
#100000000
b11111111 !
b01111111 "
0#
b11111111 %
b11111111 '
b01111111 (
0)
b11111111 +
b011111111 -
b001111111 .
b011111111 /
b11111111 1
#130000000
1$
1&
1*
1,
b100000000 /
b000000001 0
#140000000
0$
0&
0*
0,
b011111111 /
b000000000 0
