TP3/sym/tb_cordic.vcd
$date
  Wed Dec  6 11:50:15 2023
$end
$version
  GHDL v0
$end
$timescale
  1 fs
$end
$scope module standard $end
$upscope $end
$scope module std_logic_1164 $end
$upscope $end
$scope module numeric_std $end
$upscope $end
$scope module tb_cordic $end
$var reg 1 ! clk $end
$var reg 1 " rst $end
$var reg 1 # start $end
$var reg 1 $ ready $end
$var reg 18 % x_in[17:0] $end
$var reg 18 & y_in[17:0] $end
$var reg 18 ' z_in[17:0] $end
$var reg 18 ( x_out[17:0] $end
$var reg 18 ) y_out[17:0] $end
$var reg 18 * z_out[17:0] $end
$scope module cordic $end
$var reg 1 + clk $end
$var reg 1 , rst $end
$var reg 1 - rot_0_vec_1 $end
$var reg 1 . start $end
$var reg 18 / x_in[17:0] $end
$var reg 18 0 y_in[17:0] $end
$var reg 18 1 z_in[17:0] $end
$var reg 18 2 x_out[17:0] $end
$var reg 18 3 y_out[17:0] $end
$var reg 18 4 z_out[17:0] $end
$var reg 1 5 ready $end
$var reg 18 6 x_i_ap[17:0] $end
$var reg 18 7 y_i_ap[17:0] $end
$var reg 18 8 z_i_ap[17:0] $end
$var reg 18 9 x_o_bp[17:0] $end
$var reg 18 : y_o_bp[17:0] $end
$var reg 18 ; z_o_bp[17:0] $end
$var reg 36 < x_o_ap[35:0] $end
$var reg 36 = y_o_ap[35:0] $end
$var reg 18 > gain[17:0] $end
$scope module pre $end
$var reg 18 ? x_in[17:0] $end
$var reg 18 @ y_in[17:0] $end
$var reg 18 A z_in[17:0] $end
$var reg 1 B rot_0_vec_1 $end
$var reg 18 C x_out[17:0] $end
$var reg 18 D y_out[17:0] $end
$var reg 18 E z_out[17:0] $end
$var reg 1 F selec $end
$upscope $end
$scope module cordic $end
$var reg 1 G clk $end
$var reg 1 H rst $end
$var reg 1 I rot_0_vec_1 $end
$var reg 1 J start $end
$var reg 18 K x_in[17:0] $end
$var reg 18 L y_in[17:0] $end
$var reg 18 M z_in[17:0] $end
$var reg 18 N x_out[17:0] $end
$var reg 18 O y_out[17:0] $end
$var reg 18 P z_out[17:0] $end
$var reg 1 Q ready $end
$var reg 18 R x_reg[17:0] $end
$var reg 18 S y_reg[17:0] $end
$var reg 18 T z_reg[17:0] $end
$var reg 18 U x_aux[17:0] $end
$var reg 18 V y_aux[17:0] $end
$var reg 18 W z_aux[17:0] $end
$var reg 18 X x_i[17:0] $end
$var reg 18 Y y_i[17:0] $end
$var reg 18 Z z_i[17:0] $end
$var reg 18 [ beta_i[17:0] $end
$var integer 32 \ iteration $end
$var reg 4 ] it[3:0] $end
$var reg 4 ^ it_reg[3:0] $end
$var reg 1 _ not_ready $end
$scope module counter $end
$var reg 1 ` clk_i $end
$var reg 1 a rst_i $end
$var reg 1 b restart $end
$var integer 32 c count $end
$var integer 32 d aux_count $end
$upscope $end
$scope module add_sub_logic $end
$var reg 18 e x_in[17:0] $end
$var reg 18 f y_in[17:0] $end
$var reg 18 g z_in[17:0] $end
$var integer 32 h shift $end
$var reg 18 i beta_i[17:0] $end
$var reg 1 j rot_0_vec_1 $end
$var reg 18 k x_out[17:0] $end
$var reg 18 l y_out[17:0] $end
$var reg 18 m z_out[17:0] $end
$var reg 18 n x_shift[17:0] $end
$var reg 18 o y_shift[17:0] $end
$var reg 1 p selec $end
$upscope $end
$scope module regiter $end
$var reg 1 q clk $end
$var reg 1 r rst $end
$var reg 1 s ena $end
$var reg 4 t d[3:0] $end
$var reg 4 u q[3:0] $end
$upscope $end
$scope module regx $end
$var reg 1 v clk $end
$var reg 1 w rst $end
$var reg 1 x ena $end
$var reg 18 y d[17:0] $end
$var reg 18 z q[17:0] $end
$upscope $end
$scope module regy $end
$var reg 1 { clk $end
$var reg 1 | rst $end
$var reg 1 } ena $end
$var reg 18 !" d[17:0] $end
$var reg 18 "" q[17:0] $end
$upscope $end
$scope module regz $end
$var reg 1 #" clk $end
$var reg 1 $" rst $end
$var reg 1 %" ena $end
$var reg 18 &" d[17:0] $end
$var reg 18 '" q[17:0] $end
$upscope $end
$upscope $end
$upscope $end
$upscope $end
$enddefinitions $end
#0
0!
1"
1#
0$
b111101100011110000 %
b111111010001001000 &
b010000000111010000 '
b000000000000000000 (
b000000000000000000 )
b000000000000000000 *
0+
1,
0-
1.
b111101100011110000 /
b111111010001001000 0
b010000000111010000 1
b000000000000000000 2
b000000000000000000 3
b000000000000000000 4
05
b000010011100010000 6
b000000101110111000 7
b110000000111010000 8
b000000000000000000 9
b000000000000000000 :
b000000000000000000 ;
b000000000000000000000000000000000000 <
b000000000000000000000000000000000000 =
b010011011010111101 >
b111101100011110000 ?
b111111010001001000 @
b010000000111010000 A
0B
b000010011100010000 C
b000000101110111000 D
b110000000111010000 E
1F
0G
1H
0I
1J
b000010011100010000 K
b000000101110111000 L
b110000000111010000 M
b000000000000000000 N
b000000000000000000 O
b000000000000000000 P
0Q
b000000000000000000 R
b000000000000000000 S
b000000000000000000 T
b000011001011001000 U
b111110010010101000 V
b111000000111010000 W
b000010011100010000 X
b000000101110111000 Y
b110000000111010000 Z
b001000000000000000 [
b0 \
b0000 ]
b0000 ^
1_
0`
1a
1b
b0 c
b0 d
b000010011100010000 e
b000000101110111000 f
b110000000111010000 g
b0 h
b001000000000000000 i
0j
b000011001011001000 k
b111110010010101000 l
b111000000111010000 m
b000010011100010000 n
b000000101110111000 o
1p
0q
1r
1s
b0000 t
b0000 u
0v
1w
1x
b000011001011001000 y
b000000000000000000 z
0{
1|
1}
b111110010010101000 !"
b000000000000000000 ""
0#"
1$"
1%"
b111000000111010000 &"
b000000000000000000 '"
#1000000
0"
0,
0H
0a
0r
0w
0|
0$"
#2000000
1!
0#
b000001111011010001 (
b111110111101100111 )
b111000000111010000 *
1+
0.
b000001111011010001 2
b111110111101100111 3
b111000000111010000 4
b000011001011001000 9
b111110010010101000 :
b111000000111010000 ;
b000000111101101000111010110110101000 <
b111111011110110011110100000000001000 =
1G
0J
b000011001011001000 N
b111110010010101000 O
b111000000111010000 P
b000011001011001000 R
b111110010010101000 S
b111000000111010000 T
b000010010100011100 U
b111100101101000100 V
b111100110101100000 W
b000011001011001000 X
b111110010010101000 Y
b111000000111010000 Z
b000100101110010000 [
b1 \
b0001 ]
1`
0b
b1 c
b1 d
b000011001011001000 e
b111110010010101000 f
b111000000111010000 g
b1 h
b000100101110010000 i
b000010010100011100 k
b111100101101000100 l
b111100110101100000 m
b000001100101100100 n
b111111001001010100 o
1p
1q
b0001 t
1v
b000010010100011100 y
b000011001011001000 z
1{
b111100101101000100 !"
b111110010010101000 ""
1#"
b111100110101100000 &"
b111000000111010000 '"
#4000000
0!
0+
0G
0`
0q
0v
0{
0#"
#6000000
1!
b000001011010000101 (
b111101111111111110 )
b111100110101100000 *
1+
b000001011010000101 2
b111101111111111110 3
b111100110101100000 4
b000010010100011100 9
b111100101101000100 :
b111100110101100000 ;
b000000101101000010110100110110101100 <
b111110111111111111010110100100110100 =
1G
b000010010100011100 N
b111100101101000100 O
b111100110101100000 P
b000010010100011100 R
b111100101101000100 S
b111100110101100000 T
b000001011111101101 U
b111100000111111101 V
b111111010101001101 W
b000010010100011100 X
b111100101101000100 Y
b111100110101100000 Z
b000010011111101101 [
b10 \
b0010 ]
b0001 ^
1`
b10 c
b10 d
b000010010100011100 e
b111100101101000100 f
b111100110101100000 g
b10 h
b000010011111101101 i
b000001011111101101 k
b111100000111111101 l
b111111010101001101 m
b000000100101000111 n
b111111001011010001 o
1q
b0010 t
b0001 u
1v
b000001011111101101 y
b000010010100011100 z
1{
b111100000111111101 !"
b111100101101000100 ""
1#"
b111111010101001101 &"
b111100110101100000 '"
#8000000
0!
0+
0G
0`
0q
0v
0{
0#"
#10000000
1!
b000000111010000101 (
b111101101001011101 )
b111111010101001101 *
1+
b000000111010000101 2
b111101101001011101 3
b111111010101001101 4
b000001011111101101 9
b111100000111111101 :
b111111010101001101 ;
b000000011101000010101010011111111001 <
b111110110100101110101001010111001001 =
1G
b000001011111101101 N
b111100000111111101 O
b111111010101001101 P
b000001011111101101 R
b111100000111111101 S
b111111010101001101 T
b000001000000101100 U
b111011111100000000 V
b000000100110010001 W
b000001011111101101 X
b111100000111111101 Y
b111111010101001101 Z
b000001010001000100 [
b11 \
b0011 ]
b0010 ^
1`
b11 c
b11 d
b000001011111101101 e
b111100000111111101 f
b111111010101001101 g
b11 h
b000001010001000100 i
b000001000000101100 k
b111011111100000000 l
b000000100110010001 m
b000000001011111101 n
b111111100000111111 o
1q
b0011 t
b0010 u
1v
b000001000000101100 y
b000001011111101101 z
1{
b111011111100000000 !"
b111100000111111101 ""
1#"
b000000100110010001 &"
b111111010101001101 '"
#12000000
0!
0+
0G
0`
0q
0v
0{
0#"
#14000000
1!
b000000100111010000 (
b111101100010001101 )
b000000100110010001 *
1+
b000000100111010000 2
b111101100010001101 3
b000000100110010001 4
b000001000000101100 9
b111011111100000000 :
b000000100110010001 ;
b000000010011101000010011100001111100 <
b111110110001000110100000001100000000 =
1G
b000001000000101100 N
b111011111100000000 O
b000000100110010001 P
b000001000000101100 R
b111011111100000000 S
b000000100110010001 T
b000001010000111100 U
b111100000000000010 V
b111111111101100101 W
b000001000000101100 X
b111011111100000000 Y
b000000100110010001 Z
b000000101000101100 [
b100 \
b0100 ]
b0011 ^
1`
b100 c
b100 d
b000001000000101100 e
b111011111100000000 f
b000000100110010001 g
b100 h
b000000101000101100 i
b000001010000111100 k
b111100000000000010 l
b111111111101100101 m
b000000000100000010 n
b111111101111110000 o
0p
1q
b0100 t
b0011 u
1v
b000001010000111100 y
b000001000000101100 z
1{
b111100000000000010 !"
b111011111100000000 ""
1#"
b111111111101100101 &"
b000000100110010001 '"
#16000000
0!
0+
0G
0`
0q
0v
0{
0#"
#18000000
1!
b000000110001000111 (
b111101100100101001 )
b111111111101100101 *
1+
b000000110001000111 2
b111101100100101001 3
b111111111101100101 4
b000001010000111100 9
b111100000000000010 :
b111111111101100101 ;
b000000011000100011111001100001001100 <
b111110110010010100110010110101111010 =
1G
b000001010000111100 N
b111100000000000010 O
b111111111101100101 P
b000001010000111100 R
b111100000000000010 S
b111111111101100101 T
b000001001000111100 U
b111011111101100001 V
b000000010001111100 W
b000001010000111100 X
b111100000000000010 Y
b111111111101100101 Z
b000000010100010111 [
b101 \
b0101 ]
b0100 ^
1`
b101 c
b101 d
b000001010000111100 e
b111100000000000010 f
b111111111101100101 g
b101 h
b000000010100010111 i
b000001001000111100 k
b111011111101100001 l
b000000010001111100 m
b000000000010100001 n
b111111111000000000 o
1p
1q
b0101 t
b0100 u
1v
b000001001000111100 y
b000001010000111100 z
1{
b111011111101100001 !"
b111100000000000010 ""
1#"
b000000010001111100 &"
b111111111101100101 '"
#20000000
0!
0+
0G
0`
0q
0v
0{
0#"
#22000000
1!
b000000101100010001 (
b111101100011000111 )
b000000010001111100 *
1+
b000000101100010001 2
b111101100011000111 3
b000000010001111100 4
b000001001000111100 9
b111011111101100001 :
b000000010001111100 ;
b000000010110001000100001111001001100 <
b111110110001100011111100000010011101 =
1G
b000001001000111100 N
b111011111101100001 O
b000000010001111100 P
b000001001000111100 R
b111011111101100001 S
b000000010001111100 T
b000001001100111111 U
b111011111110101001 V
b000000000111110000 W
b000001001000111100 X
b111011111101100001 Y
b000000010001111100 Z
b000000001010001100 [
b110 \
b0110 ]
b0101 ^
1`
b110 c
b110 d
b000001001000111100 e
b111011111101100001 f
b000000010001111100 g
b110 h
b000000001010001100 i
b000001001100111111 k
b111011111110101001 l
b000000000111110000 m
b000000000001001000 n
b111111111011111101 o
0p
1q
b0110 t
b0101 u
1v
b000001001100111111 y
b000001001000111100 z
1{
b111011111110101001 !"
b111011111101100001 ""
1#"
b000000000111110000 &"
b000000010001111100 '"
#24000000
0!
0+
0G
0`
0q
0v
0{
0#"
#26000000
1!
b000000101110101110 (
b111101100011110011 )
b000000000111110000 *
1+
b000000101110101110 2
b111101100011110011 3
b000000000111110000 4
b000001001100111111 9
b111011111110101001 :
b000000000111110000 ;
b000000010111010111000111111110000011 <
b111110110001111001110010010111000101 =
1G
b000001001100111111 N
b111011111110101001 O
b000000000111110000 P
b000001001100111111 R
b111011111110101001 S
b000000000111110000 T
b000001001111000000 U
b111011111111001111 V
b000000000010101010 W
b000001001100111111 X
b111011111110101001 Y
b000000000111110000 Z
b000000000101000110 [
b111 \
b0111 ]
b0110 ^
1`
b111 c
b111 d
b000001001100111111 e
b111011111110101001 f
b000000000111110000 g
b111 h
b000000000101000110 i
b000001001111000000 k
b111011111111001111 l
b000000000010101010 m
b000000000000100110 n
b111111111101111111 o
1q
b0111 t
b0110 u
1v
b000001001111000000 y
b000001001100111111 z
1{
b111011111111001111 !"
b111011111110101001 ""
1#"
b000000000010101010 &"
b000000000111110000 '"
#28000000
0!
0+
0G
0`
0q
0v
0{
0#"
#30000000
1!
b000000101111111100 (
b111101100100001010 )
b000000000010101010 *
1+
b000000101111111100 2
b111101100100001010 3
b000000000010101010 4
b000001001111000000 9
b111011111111001111 :
b000000000010101010 ;
b000000010111111110010001010011000000 <
b111110110010000101010100010111010011 =
1G
b000001001111000000 N
b111011111111001111 O
b000000000010101010 P
b000001001111000000 R
b111011111111001111 S
b000000000010101010 T
b000001010000000001 U
b111011111111100010 V
b000000000000000111 W
b000001001111000000 X
b111011111111001111 Y
b000000000010101010 Z
b000000000010100011 [
b1000 \
b1000 ]
b0111 ^
1`
b1000 c
b1000 d
b000001001111000000 e
b111011111111001111 f
b000000000010101010 g
b1000 h
b000000000010100011 i
b000001010000000001 k
b111011111111100010 l
b000000000000000111 m
b000000000000010011 n
b111111111110111111 o
1q
b1000 t
b0111 u
1v
b000001010000000001 y
b000001001111000000 z
1{
b111011111111100010 !"
b111011111111001111 ""
1#"
b000000000000000111 &"
b000000000010101010 '"
#32000000
0!
0+
0G
0`
0q
0v
0{
0#"
#34000000
1!
b000000110000100011 (
b111101100100010110 )
b000000000000000111 *
1+
b000000110000100011 2
b111101100100010110 3
b000000000000000111 4
b000001010000000001 9
b111011111111100010 :
b000000000000000111 ;
b000000011000010001111111101010111101 <
b111110110010001011000101010111011010 =
1G
b000001010000000001 N
b111011111111100010 O
b000000000000000111 P
b000001010000000001 R
b111011111111100010 S
b000000000000000111 T
b000001010000100010 U
b111011111111101100 V
b111111111110110110 W
b000001010000000001 X
b111011111111100010 Y
b000000000000000111 Z
b000000000001010001 [
b1001 \
b1001 ]
b1000 ^
1`
b1001 c
b1001 d
b000001010000000001 e
b111011111111100010 f
b000000000000000111 g
b1001 h
b000000000001010001 i
b000001010000100010 k
b111011111111101100 l
b111111111110110110 m
b000000000000001010 n
b111111111111011111 o
1q
b1001 t
b1000 u
1v
b000001010000100010 y
b000001010000000001 z
1{
b111011111111101100 !"
b111011111111100010 ""
1#"
b111111111110110110 &"
b000000000000000111 '"
#36000000
0!
0+
0G
0`
0q
0v
0{
0#"
#38000000
1!
b000000110000111000 (
b111101100100011100 )
b111111111110110110 *
1+
b000000110000111000 2
b111101100100011100 3
b111111111110110110 4
b000001010000100010 9
b111011111111101100 :
b111111111110110110 ;
b000000011000011100000000100100011010 <
b111110110010001110000111100100111100 =
1G
b000001010000100010 N
b111011111111101100 O
b111111111110110110 P
b000001010000100010 R
b111011111111101100 S
b111111111110110110 T
b000001010000010001 U
b111011111111100111 V
b111111111111011111 W
b000001010000100010 X
b111011111111101100 Y
b111111111110110110 Z
b000000000000101001 [
b1010 \
b1010 ]
b1001 ^
1`
b1010 c
b1010 d
b000001010000100010 e
b111011111111101100 f
b111111111110110110 g
b1010 h
b000000000000101001 i
b000001010000010001 k
b111011111111100111 l
b111111111111011111 m
b000000000000000101 n
b111111111111101111 o
1p
1q
b1010 t
b1001 u
1v
b000001010000010001 y
b000001010000100010 z
1{
b111011111111100111 !"
b111011111111101100 ""
1#"
b111111111111011111 &"
b111111111110110110 '"
#40000000
0!
0+
0G
0`
0q
0v
0{
0#"
#42000000
1!
b000000110000101101 (
b111101100100011001 )
b111111111111011111 *
1+
b000000110000101101 2
b111101100100011001 3
b111111111111011111 4
b000001010000010001 9
b111011111111100111 :
b111111111111011111 ;
b000000011000010110110110011010001101 <
b111110110010001100100110011110001011 =
1G
b000001010000010001 N
b111011111111100111 O
b111111111111011111 P
b000001010000010001 R
b111011111111100111 S
b111111111111011111 T
b000001010000001000 U
b111011111111100101 V
b111111111111110011 W
b000001010000010001 X
b111011111111100111 Y
b111111111111011111 Z
b000000000000010100 [
b1011 \
b1011 ]
b1010 ^
1`
b1011 c
b1011 d
b000001010000010001 e
b111011111111100111 f
b111111111111011111 g
b1011 h
b000000000000010100 i
b000001010000001000 k
b111011111111100101 l
b111111111111110011 m
b000000000000000010 n
b111111111111110111 o
1q
b1011 t
b1010 u
1v
b000001010000001000 y
b000001010000010001 z
1{
b111011111111100101 !"
b111011111111100111 ""
1#"
b111111111111110011 &"
b111111111111011111 '"
#44000000
0!
0+
0G
0`
0q
0v
0{
0#"
#46000000
1!
b000000110000101000 (
b111101100100010111 )
b111111111111110011 *
1+
b000000110000101000 2
b111101100100010111 3
b111111111111110011 4
b000001010000001000 9
b111011111111100101 :
b111111111111110011 ;
b000000011000010100000111100111101000 <
b111110110010001011111111101000010001 =
1G
b000001010000001000 N
b111011111111100101 O
b111111111111110011 P
b000001010000001000 R
b111011111111100101 S
b111111111111110011 T
b000001010000000011 U
b111011111111100100 V
b111111111111111101 W
b000001010000001000 X
b111011111111100101 Y
b111111111111110011 Z
b000000000000001010 [
b1100 \
b1100 ]
b1011 ^
1`
b1100 c
b1100 d
b000001010000001000 e
b111011111111100101 f
b111111111111110011 g
b1100 h
b000000000000001010 i
b000001010000000011 k
b111011111111100100 l
b111111111111111101 m
b000000000000000001 n
b111111111111111011 o
1q
b1100 t
b1011 u
1v
b000001010000000011 y
b000001010000001000 z
1{
b111011111111100100 !"
b111011111111100101 ""
1#"
b111111111111111101 &"
b111111111111110011 '"
#48000000
0!
0+
0G
0`
0q
0v
0{
0#"
#50000000
1!
b000000110000100101 (
b111111111111111101 *
1+
b000000110000100101 2
b111111111111111101 4
b000001010000000011 9
b111011111111100100 :
b111111111111111101 ;
b000000011000010010100110100000110111 <
b111110110010001011101100001101010100 =
1G
b000001010000000011 N
b111011111111100100 O
b111111111111111101 P
b000001010000000011 R
b111011111111100100 S
b111111111111111101 T
b000001010000000000 U
b111011111111100100 V
b000000000000000010 W
b000001010000000011 X
b111011111111100100 Y
b111111111111111101 Z
b000000000000000101 [
b1101 \
b1101 ]
b1100 ^
1`
b1101 c
b1101 d
b000001010000000011 e
b111011111111100100 f
b111111111111111101 g
b1101 h
b000000000000000101 i
b000001010000000000 k
b111011111111100100 l
b000000000000000010 m
b000000000000000000 n
b111111111111111101 o
1q
b1101 t
b1100 u
1v
b000001010000000000 y
b000001010000000011 z
1{
b111011111111100100 !"
b111011111111100100 ""
1#"
b000000000000000010 &"
b111111111111111101 '"
#52000000
0!
0+
0G
0`
0q
0v
0{
0#"
#54000000
1!
b000000110000100011 (
b000000000000000010 *
1+
b000000110000100011 2
b000000000000000010 4
b000001010000000000 9
b000000000000000010 ;
b000000011000010001101100010000000000 <
1G
b000001010000000000 N
b000000000000000010 P
b000001010000000000 R
b000000000000000010 T
b000001010000000010 U
b111111111111111111 W
b000001010000000000 X
b000000000000000010 Z
b000000000000000011 [
b1110 \
b1110 ]
b1101 ^
1`
b1110 c
b1110 d
b000001010000000000 e
b000000000000000010 g
b1110 h
b000000000000000011 i
b000001010000000010 k
b111111111111111111 m
b111111111111111110 o
0p
1q
b1110 t
b1101 u
1v
b000001010000000010 y
b000001010000000000 z
1{
1#"
b111111111111111111 &"
b000000000000000010 '"
#56000000
0!
0+
0G
0`
0q
0v
0{
0#"
#58000000
1!
b000000110000100100 (
b111111111111111111 *
1+
b000000110000100100 2
b111111111111111111 4
b000001010000000010 9
b111111111111111111 ;
b000000011000010010010011000101111010 <
1G
b000001010000000010 N
b111111111111111111 P
b000001010000000010 R
b111111111111111111 T
b000001010000000001 U
b000000000000000000 W
b000001010000000010 X
b111111111111111111 Z
b000000000000000001 [
b1111 \
b1111 ]
b1110 ^
1`
b1111 c
b1111 d
b000001010000000010 e
b111111111111111111 g
b1111 h
b000000000000000001 i
b000001010000000001 k
b000000000000000000 m
b111111111111111111 o
1p
1q
b1111 t
b1110 u
1v
b000001010000000001 y
b000001010000000010 z
1{
1#"
b000000000000000000 &"
b111111111111111111 '"
#60000000
0!
0+
0G
0`
0q
0v
0{
0#"
#62000000
1!
1$
b000000110000100011 (
b000000000000000000 *
1+
b000000110000100011 2
b000000000000000000 4
15
b000001010000000001 9
b000000000000000000 ;
b000000011000010001111111101010111101 <
1G
b000001010000000001 N
b000000000000000000 P
1Q
b000001010000000001 R
b000000000000000000 T
b000101010000011101 U
b111101001111100101 V
b111000000000000000 W
b000001010000000001 X
b000000000000000000 Z
b001000000000000000 [
b0 \
b0000 ]
b1111 ^
0_
1`
b0 c
b0 d
b000001010000000001 e
b000000000000000000 g
b0 h
b001000000000000000 i
b000101010000011101 k
b111101001111100101 l
b111000000000000000 m
b000001010000000001 n
b111011111111100100 o
0p
1q
b0000 t
b1111 u
1v
b000101010000011101 y
b000001010000000001 z
1{
b111101001111100101 !"
1#"
b111000000000000000 &"
b000000000000000000 '"
#64000000
0!
0+
0G
0`
0q
0v
0{
0#"
#66000000
1!
0$
b000011001100001100 (
b111110010100111011 )
b111000000000000000 *
1+
b000011001100001100 2
b111110010100111011 3
b111000000000000000 4
05
b000101010000011101 9
b111101001111100101 :
b111000000000000000 ;
b000001100110000110010011011101101001 <
b111111001010011101101011111000010001 =
1G
b000101010000011101 N
b111101001111100101 O
b111000000000000000 P
0Q
b000101010000011101 R
b111101001111100101 S
b111000000000000000 T
b000011111000001111 U
b111010100111010111 V
b111100101110010000 W
b000101010000011101 X
b111101001111100101 Y
b111000000000000000 Z
b000100101110010000 [
b1 \
b0001 ]
b0000 ^
1_
1`
b1 c
b1 d
b000101010000011101 e
b111101001111100101 f
b111000000000000000 g
b1 h
b000100101110010000 i
b000011111000001111 k
b111010100111010111 l
b111100101110010000 m
b000010101000001110 n
b111110100111110010 o
1p
1q
b0001 t
b0000 u
1v
b000011111000001111 y
b000101010000011101 z
1{
b111010100111010111 !"
b111101001111100101 ""
1#"
b111100101110010000 &"
b111000000000000000 '"
#68000000
0!
0+
0G
0`
0q
0v
0{
0#"
#70000000
1!
b000010010110101001 (
b111100101110110101 )
b111100101110010000 *
1+
b000010010110101001 2
b111100101110110101 3
b111100101110010000 4
b000011111000001111 9
b111010100111010111 :
b111100101110010000 ;
b000001001011010100111111101100010011 <
b111110010111011010101011110110111011 =
1G
b000011111000001111 N
b111010100111010111 O
b111100101110010000 P
b000011111000001111 R
b111010100111010111 S
b111100101110010000 T
b000010100010000100 U
b111001101001010100 V
b111111001101111101 W
b000011111000001111 X
b111010100111010111 Y
b111100101110010000 Z
b000010011111101101 [
b10 \
b0010 ]
b0001 ^
1`
b10 c
b10 d
b000011111000001111 e
b111010100111010111 f
b111100101110010000 g
b10 h
b000010011111101101 i
b000010100010000100 k
b111001101001010100 l
b111111001101111101 m
b000000111110000011 n
b111110101001110101 o
1q
b0010 t
b0001 u
1v
b000010100010000100 y
b000011111000001111 z
1{
b111001101001010100 !"
b111010100111010111 ""
1#"
b111111001101111101 &"
b111100101110010000 '"
#72000000
0!
0+
0G
0`
0q
0v
0{
0#"
#74000000
1!
b000001100010010110 (
b111100001001001011 )
b111111001101111101 *
1+
b000001100010010110 2
b111100001001001011 3
b111111001101111101 4
b000010100010000100 9
b111001101001010100 :
b111111001101111101 ;
b000000110001001011011100000101110100 <
b111110000100100101101010100000000100 =
1G
b000010100010000100 N
b111001101001010100 O
b111111001101111101 P
b000010100010000100 R
b111001101001010100 S
b111111001101111101 T
b000001101111001110 U
b111001010101000100 V
b000000011111000001 W
b000010100010000100 X
b111001101001010100 Y
b111111001101111101 Z
b000001010001000100 [
b11 \
b0011 ]
b0010 ^
1`
b11 c
b11 d
b000010100010000100 e
b111001101001010100 f
b111111001101111101 g
b11 h
b000001010001000100 i
b000001101111001110 k
b111001010101000100 l
b000000011111000001 m
b000000010100010000 n
b111111001101001010 o
1q
b0011 t
b0010 u
1v
b000001101111001110 y
b000010100010000100 z
1{
b111001010101000100 !"
b111001101001010100 ""
1#"
b000000011111000001 &"
b111111001101111101 '"
#76000000
0!
0+
0G
0`
0q
0v
0{
0#"
#78000000
1!
b000001000011011111 (
b111011111100111000 )
b000000011111000001 *
1+
b000001000011011111 2
b111011111100111000 3
b000000011111000001 4
b000001101111001110 9
b111001010101000100 :
b000000011111000001 ;
b000000100001101111111111101100010110 <
b111101111110011100011000101100110100 =
1G
b000001101111001110 N
b111001010101000100 O
b000000011111000001 P
b000001101111001110 R
b111001010101000100 S
b000000011111000001 T
b000010001001111010 U
b111001011100000000 V
b111111110110010101 W
b000001101111001110 X
b111001010101000100 Y
b000000011111000001 Z
b000000101000101100 [
b100 \
b0100 ]
b0011 ^
1`
b100 c
b100 d
b000001101111001110 e
b111001010101000100 f
b000000011111000001 g
b100 h
b000000101000101100 i
b000010001001111010 k
b111001011100000000 l
b111111110110010101 m
b000000000110111100 n
b111111100101010100 o
0p
1q
b0100 t
b0011 u
1v
b000010001001111010 y
b000001101111001110 z
1{
b111001011100000000 !"
b111001010101000100 ""
1#"
b111111110110010101 &"
b000000011111000001 '"
#80000000
0!
0+
0G
0`
0q
0v
0{
0#"
#82000000
1!
b000001010011101100 (
b111100000001000110 )
b111111110110010101 *
1+
b000001010011101100 2
b111100000001000110 3
b111111110110010101 4
b000010001001111010 9
b111001011100000000 :
b111111110110010101 ;
b000000101001110110010011000000010010 <
b111110000000100011000111101100000000 =
1G
b000010001001111010 N
b111001011100000000 O
b111111110110010101 P
b000010001001111010 R
b111001011100000000 S
b111111110110010101 T
b000001111100110010 U
b111001010111101101 V
b000000001010101100 W
b000010001001111010 X
b111001011100000000 Y
b111111110110010101 Z
b000000010100010111 [
b101 \
b0101 ]
b0100 ^
1`
b101 c
b101 d
b000010001001111010 e
b111001011100000000 f
b111111110110010101 g
b101 h
b000000010100010111 i
b000001111100110010 k
b111001010111101101 l
b000000001010101100 m
b000000000100010011 n
b111111110010111000 o
1p
1q
b0101 t
b0100 u
1v
b000001111100110010 y
b000010001001111010 z
1{
b111001010111101101 !"
b111001011100000000 ""
1#"
b000000001010101100 &"
b111111110110010101 '"
#84000000
0!
0+
0G
0`
0q
0v
0{
0#"
#86000000
1!
b000001001011101110 (
b111011111110011111 )
b000000001010101100 *
1+
b000001001011101110 2
b111011111110011111 3
b000000001010101100 4
b000001111100110010 9
b111001010111101101 :
b000000001010101100 ;
b000000100101110111011001001111101010 <
b111101111111001111101010110111111001 =
1G
b000001111100110010 N
b111001010111101101 O
b000000001010101100 P
b000001111100110010 R
b111001010111101101 S
b000000001010101100 T
b000010000011011011 U
b111001011001101001 V
b000000000000100000 W
b000001111100110010 X
b111001010111101101 Y
b000000001010101100 Z
b000000001010001100 [
b110 \
b0110 ]
b0101 ^
1`
b110 c
b110 d
b000001111100110010 e
b111001010111101101 f
b000000001010101100 g
b110 h
b000000001010001100 i
b000010000011011011 k
b111001011001101001 l
b000000000000100000 m
b000000000001111100 n
b111111111001010111 o
0p
1q
b0110 t
b0101 u
1v
b000010000011011011 y
b000001111100110010 z
1{
b111001011001101001 !"
b111001010111101101 ""
1#"
b000000000000100000 &"
b000000001010101100 '"
#88000000
0!
0+
0G
0`
0q
0v
0{
0#"
#90000000
1!
b000001001111110000 (
b111011111111101010 )
b000000000000100000 *
1+
b000001001111110000 2
b111011111111101010 3
b000000000000100000 4
b000010000011011011 9
b111001011001101001 :
b000000000000100000 ;
b000000100111111000010111001110101111 <
b111101111111110101010011000110000101 =
1G
b000010000011011011 N
b111001011001101001 O
b000000000000100000 P
b000010000011011011 R
b111001011001101001 S
b000000000000100000 T
b000010000110101111 U
b111001011010101010 V
b111111111011011010 W
b000010000011011011 X
b111001011001101001 Y
b000000000000100000 Z
b000000000101000110 [
b111 \
b0111 ]
b0110 ^
1`
b111 c
b111 d
b000010000011011011 e
b111001011001101001 f
b000000000000100000 g
b111 h
b000000000101000110 i
b000010000110101111 k
b111001011010101010 l
b111111111011011010 m
b000000000001000001 n
b111111111100101100 o
1q
b0111 t
b0110 u
1v
b000010000110101111 y
b000010000011011011 z
1{
b111001011010101010 !"
b111001011001101001 ""
1#"
b111111111011011010 &"
b000000000000100000 '"
#92000000
0!
0+
0G
0`
0q
0v
0{
0#"
#94000000
1!
b000001010001110001 (
b111100000000010010 )
b111111111011011010 *
1+
b000001010001110001 2
b111100000000010010 3
b111111111011011010 4
b000010000110101111 9
b111001011010101010 :
b111111111011011010 ;
b000000101000111000101100100000110011 <
b111110000000001001000001011110000010 =
1G
b000010000110101111 N
b111001011010101010 O
b111111111011011010 P
b000010000110101111 R
b111001011010101010 S
b111111111011011010 T
b000010000101000101 U
b111001011010001001 V
b111111111101111101 W
b000010000110101111 X
b111001011010101010 Y
b111111111011011010 Z
b000000000010100011 [
b1000 \
b1000 ]
b0111 ^
1`
b1000 c
b1000 d
b000010000110101111 e
b111001011010101010 f
b111111111011011010 g
b1000 h
b000000000010100011 i
b000010000101000101 k
b111001011010001001 l
b111111111101111101 m
b000000000000100001 n
b111111111110010110 o
1p
1q
b1000 t
b0111 u
1v
b000010000101000101 y
b000010000110101111 z
1{
b111001011010001001 !"
b111001011010101010 ""
1#"
b111111111101111101 &"
b111111111011011010 '"
#96000000
0!
0+
0G
0`
0q
0v
0{
0#"
